<svg width="16" height="16" viewBox="0 0 16 16" fill="none" xmlns="http://www.w3.org/2000/svg">
<circle cx="8" cy="8" r="7.5" fill="white" stroke="#D63736"/>
<path fill-rule="evenodd" clip-rule="evenodd" d="M11.1625 5.76958C11.3531 5.98833 11.3458 6.33493 11.146 6.54374L7.47933 10.3766C7.28612 10.5786 6.98207 10.5786 6.78886 10.3766L4.95554 8.46019C4.75579 8.25138 4.74844 7.90478 4.93911 7.68603C5.12978 7.46729 5.44627 7.45923 5.64602 7.66803L7.1341 9.22359L10.4555 5.75158C10.6553 5.54277 10.9718 5.55083 11.1625 5.76958Z" fill="#D63736"/>
</svg>
